0 0 0 
0.0123241 -0.101697 -0.112483 
0.0884978 -0.0756275 0.0473657 
0.167457 0.0555094 -0.0355041 
0.282044 0.0566163 -0.0327732 
0.428509 -0.0853832 0.075695 
1 1 1 
0 0 0 
0.0341229 -4.67913 -3.48653 
0.513135 1.2019 4.76195 
0.705918 6.0288 -2.31991 
0.871709 0.0130805 -0.420142 
0.98458 -6.59848 3.27368 
0 0 0 
-0.965547 -244.935 -123.974 
4.4945 308.05 287.999 
4.63162 252.462 -237.704 
0.845686 -316.33 42.5252 
-2.16577 -347.297 145.997 
20.0996 4 5.51283 
0.00216854 0.032558 -0.0267428 
